{
    "data": [
      {
        "withdraw_id": 4477,
        "issued_date": "12/13/2019",
        "total": "30.000.000",
        "withdraw_status": "Sudah Ditarik"
      },
      {
        "withdraw_id": 5020,
        "issued_date": "07/17/2019",
        "total": "10.000.000",
        "withdraw_status": "Sudah Ditarik"      
    },
      {
        "withdraw_id": 5021,
        "issued_date": "07/25/2019",
        "total": "50.000.000",
        "withdraw_status": "Belum Ditarik"      
    }
    ]
}